{
    "createdAt": "2020-11-21 14:09:13.646000+00:00",
    "id": "valvin1",
    "perfs": {
        "blitz": {
            "games": 0,
            "prog": 0,
            "prov": true,
            "rating": 1500,
            "rd": 500
        },
        "bullet": {
            "games": 0,
            "prog": 0,
            "prov": true,
            "rating": 1500,
            "rd": 500
        },
        "classical": {
            "games": 1,
            "prog": 0,
            "prov": true,
            "rating": 1208,
            "rd": 337
        },
        "correspondence": {
            "games": 1,
            "prog": 0,
            "prov": true,
            "rating": 1896,
            "rd": 334
        },
        "puzzle": {
            "games": 1119,
            "prog": 0,
            "rating": 1684,
            "rd": 80
        },
        "racer": {
            "runs": 2,
            "score": 9
        },
        "rapid": {
            "games": 420,
            "prog": -6,
            "rating": 1235,
            "rd": 46
        },
        "storm": {
            "runs": 47,
            "score": 12
        },
        "streak": {
            "runs": 128,
            "score": 25
        }
    },
    "playTime": {
        "total": 420547,
        "tv": 0
    },
    "profile": {
        "bio": "A chess noob who discovers the game he wants to play when he was younger",
        "country": "FR",
        "firstName": "ValVin"
    },
    "seenAt": "2022-06-05 14:44:06.164000+00:00",
    "url": "https://lichess.org/@/valvin1",
    "username": "valvin1"
}